
strategic_region={
	id=29
	name="STRATEGICREGION_29"
	provinces={
		12105 12482 12889 12985 13545 13679 13804 14190 14234 14347 14608 14635 14645 14694 14842 14862 14888 14916 14925 15000 15001 15014 15192 15242 15265 15475 16145 16173 16183 16218 16248 16292 16315 16427 16454 16499 16513 16601 16610 
	}
	naval_terrain=water_shallow_sea
	weather={
	}
}
