
strategic_region={
	id=33
	name="STRATEGICREGION_33"
	provinces={
		12055 12250 12560 12754 13116 13398 13794 13825 13866 13886 13956 13963 14055 14262 14301 14326 14524 14630 14730 14922 14930 14945 15042 15136 15215 15216 15341 15444 15467 16096 16117 16125 16126 16137 16190 16194 16196 16213 16215 16258 
	}
	naval_terrain=water_shallow_sea
	weather={
	}
}
