
strategic_region={
	id=36
	name="STRATEGICREGION_36"
	provinces={
		11562 11940 12126 12404 12905 13141 13278 13447 13459 13643 13924 14323 14363 14402 14682 14848 14865 14977 15139 15816 15839 15851 15870 
	}
	weather={
	}
}
