
strategic_region={
	id=4
	name="STRATEGICREGION_4"
	provinces={
		11220 11259 11540 11563 11811 12010 12229 12293 12333 12430 12434 12444 12578 12599 12683 12693 12821 13067 13162 13191 13254 13352 13418 13439 13483 13735 13821 13841 13871 13918 13935 13964 14027 14119 14133 14140 14179 14192 14209 14437 14455 14456 14556 14564 14573 14664 14740 14885 14921 14932 15037 15097 15198 15225 15249 15389 15789 15799 15803 15810 15813 15829 15834 15840 15841 15846 15858 15862 15864 15869 15882 15890 15899 15916 15932 15966 15971 15977 15981 16007 
	}
	naval_terrain=water_shallow_sea
	weather={
	}
}
