
strategic_region={
	id=45
	name="STRATEGICREGION_45"
	provinces={
		11528 11983 12582 12763 13193 13232 13373 14034 14141 14485 14550 14687 14714 14718 14823 15246 15477 16095 16111 16114 16127 16142 16155 
	}
	weather={
	}
}
